<svg width="370" height="108" viewBox="0 0 370 108" fill="none" xmlns="http://www.w3.org/2000/svg">
<path d="M5.02 14H1.42V13.124L2.452 12.74V6.704L1.42 6.308V5.432H5.02V6.308L3.988 6.704V12.74L5.02 13.124V14ZM9.89341 7.376C10.6214 7.376 11.1894 7.564 11.5974 7.94C12.0134 8.316 12.2214 8.924 12.2214 9.764V14H10.7094V10.064C10.7094 9.576 10.6134 9.212 10.4214 8.972C10.2294 8.724 9.92541 8.6 9.50941 8.6C8.90141 8.6 8.48541 8.792 8.26141 9.176C8.03741 9.56 7.92541 10.108 7.92541 10.82V14H6.41341V7.496H7.57741L7.79341 8.348H7.87741C8.08541 8.012 8.36941 7.768 8.72941 7.616C9.09741 7.456 9.48541 7.376 9.89341 7.376ZM17.5326 7.376C18.2926 7.376 18.9046 7.66 19.3686 8.228C19.8326 8.788 20.0646 9.624 20.0646 10.736C20.0646 11.848 19.8246 12.692 19.3446 13.268C18.8726 13.836 18.2566 14.12 17.4966 14.12C17.0166 14.12 16.6286 14.032 16.3326 13.856C16.0366 13.68 15.8006 13.476 15.6246 13.244H15.5286C15.5526 13.396 15.5726 13.56 15.5886 13.736C15.6126 13.912 15.6246 14.08 15.6246 14.24V16.88H14.1126V7.496H15.3366L15.5526 8.36H15.6246C15.8086 8.088 16.0486 7.856 16.3446 7.664C16.6406 7.472 17.0366 7.376 17.5326 7.376ZM17.1006 8.6C16.5646 8.6 16.1846 8.76 15.9606 9.08C15.7446 9.4 15.6326 9.884 15.6246 10.532V10.724C15.6246 11.42 15.7286 11.956 15.9366 12.332C16.1526 12.7 16.5486 12.884 17.1246 12.884C17.5966 12.884 17.9446 12.692 18.1686 12.308C18.4006 11.916 18.5166 11.384 18.5166 10.712C18.5166 10.04 18.4006 9.52 18.1686 9.152C17.9446 8.784 17.5886 8.6 17.1006 8.6ZM27.3963 7.496V14H26.2083L26.0043 13.16H25.9323C25.7243 13.496 25.4363 13.74 25.0683 13.892C24.7003 14.044 24.3123 14.12 23.9043 14.12C23.1763 14.12 22.6043 13.932 22.1883 13.556C21.7803 13.18 21.5763 12.576 21.5763 11.744V7.496H23.0883V11.444C23.0883 11.932 23.1843 12.296 23.3763 12.536C23.5683 12.776 23.8723 12.896 24.2883 12.896C24.8963 12.896 25.3123 12.704 25.5363 12.32C25.7683 11.936 25.8843 11.388 25.8843 10.676V7.496H27.3963ZM31.8436 12.908C32.0276 12.908 32.2076 12.892 32.3836 12.86C32.5676 12.82 32.7356 12.776 32.8876 12.728V13.856C32.7276 13.936 32.5196 14 32.2636 14.048C32.0076 14.096 31.7396 14.12 31.4596 14.12C31.0836 14.12 30.7436 14.06 30.4396 13.94C30.1436 13.82 29.9076 13.608 29.7316 13.304C29.5556 13 29.4676 12.572 29.4676 12.02V8.636H28.5916V7.976L29.5516 7.448L30.0316 6.068H30.9796V7.496H32.8276V8.636H30.9796V12.008C30.9796 12.312 31.0596 12.54 31.2196 12.692C31.3876 12.836 31.5956 12.908 31.8436 12.908ZM40.5318 14H38.9958V6.728H36.5358V5.432H42.9918V6.728H40.5318V14ZM45.9318 7.376C46.8038 7.376 47.4918 7.636 47.9958 8.156C48.5078 8.676 48.7638 9.4 48.7638 10.328V11.096H44.4678C44.4838 11.688 44.6478 12.148 44.9598 12.476C45.2718 12.796 45.7038 12.956 46.2558 12.956C46.6718 12.956 47.0478 12.916 47.3838 12.836C47.7198 12.748 48.0638 12.624 48.4158 12.464V13.676C48.0958 13.828 47.7638 13.94 47.4198 14.012C47.0758 14.084 46.6638 14.12 46.1838 14.12C45.5438 14.12 44.9798 14 44.4918 13.76C44.0038 13.512 43.6198 13.144 43.3398 12.656C43.0678 12.16 42.9318 11.54 42.9318 10.796C42.9318 9.684 43.2038 8.836 43.7478 8.252C44.2998 7.668 45.0278 7.376 45.9318 7.376ZM45.9318 8.492C45.5238 8.492 45.1918 8.624 44.9358 8.888C44.6878 9.144 44.5438 9.528 44.5038 10.04H47.2998C47.2918 9.592 47.1758 9.224 46.9518 8.936C46.7358 8.64 46.3958 8.492 45.9318 8.492ZM51.458 10.676L49.31 7.496H51.026L52.442 9.704L53.858 7.496H55.574L53.402 10.676L55.682 14H53.966L52.442 11.636L50.918 14H49.202L51.458 10.676ZM59.2889 12.908C59.4729 12.908 59.6529 12.892 59.8289 12.86C60.0129 12.82 60.1809 12.776 60.3329 12.728V13.856C60.1729 13.936 59.9649 14 59.7089 14.048C59.4529 14.096 59.1849 14.12 58.9049 14.12C58.5289 14.12 58.1889 14.06 57.8849 13.94C57.5889 13.82 57.3529 13.608 57.1769 13.304C57.0009 13 56.9129 12.572 56.9129 12.02V8.636H56.0369V7.976L56.9969 7.448L57.4769 6.068H58.4249V7.496H60.2729V8.636H58.4249V12.008C58.4249 12.312 58.5049 12.54 58.6649 12.692C58.8329 12.836 59.0409 12.908 59.2889 12.908ZM64.9051 14V5.432H66.4411V12.704H70.0171V14H64.9051ZM73.9507 7.376C74.7907 7.376 75.4267 7.56 75.8587 7.928C76.2987 8.296 76.5187 8.864 76.5187 9.632V14H75.4507L75.1507 13.1H75.1027C74.8227 13.452 74.5267 13.712 74.2147 13.88C73.9027 14.04 73.4787 14.12 72.9427 14.12C72.3587 14.12 71.8747 13.956 71.4907 13.628C71.1067 13.3 70.9147 12.792 70.9147 12.104C70.9147 11.432 71.1587 10.928 71.6467 10.592C72.1427 10.256 72.8907 10.068 73.8907 10.028L75.0187 9.992V9.668C75.0187 9.252 74.9187 8.956 74.7187 8.78C74.5187 8.604 74.2387 8.516 73.8787 8.516C73.5507 8.516 73.2347 8.564 72.9307 8.66C72.6347 8.748 72.3387 8.86 72.0427 8.996L71.5627 7.94C71.8827 7.772 72.2467 7.636 72.6547 7.532C73.0707 7.428 73.5027 7.376 73.9507 7.376ZM75.0187 10.928L74.2267 10.952C73.5627 10.976 73.1027 11.092 72.8467 11.3C72.5907 11.5 72.4627 11.772 72.4627 12.116C72.4627 12.428 72.5507 12.652 72.7267 12.788C72.9107 12.916 73.1507 12.98 73.4467 12.98C73.8867 12.98 74.2587 12.856 74.5627 12.608C74.8667 12.352 75.0187 11.976 75.0187 11.48V10.928ZM79.9254 4.88V7.04C79.9254 7.296 79.9174 7.544 79.9014 7.784C79.8854 8.024 79.8694 8.212 79.8534 8.348H79.9254C80.1014 8.076 80.3414 7.848 80.6454 7.664C80.9494 7.472 81.3454 7.376 81.8334 7.376C82.5854 7.376 83.1934 7.66 83.6574 8.228C84.1294 8.796 84.3654 9.632 84.3654 10.736C84.3654 11.856 84.1294 12.7 83.6574 13.268C83.1854 13.836 82.5654 14.12 81.7974 14.12C81.3094 14.12 80.9174 14.032 80.6214 13.856C80.3334 13.68 80.1014 13.476 79.9254 13.244H79.8174L79.5414 14H78.4134V4.88H79.9254ZM81.4014 8.6C80.8574 8.6 80.4774 8.764 80.2614 9.092C80.0454 9.42 79.9334 9.924 79.9254 10.604V10.736C79.9254 11.432 80.0294 11.964 80.2374 12.332C80.4534 12.7 80.8494 12.884 81.4254 12.884C81.8734 12.884 82.2174 12.7 82.4574 12.332C82.6974 11.956 82.8174 11.42 82.8174 10.724C82.8174 10.012 82.6934 9.48 82.4454 9.128C82.2054 8.776 81.8574 8.6 81.4014 8.6ZM88.5411 7.376C89.4131 7.376 90.1011 7.636 90.6051 8.156C91.1171 8.676 91.3731 9.4 91.3731 10.328V11.096H87.0771C87.0931 11.688 87.2571 12.148 87.5691 12.476C87.8811 12.796 88.3131 12.956 88.8651 12.956C89.2811 12.956 89.6571 12.916 89.9931 12.836C90.3291 12.748 90.6731 12.624 91.0251 12.464V13.676C90.7051 13.828 90.3731 13.94 90.0291 14.012C89.6851 14.084 89.2731 14.12 88.7931 14.12C88.1531 14.12 87.5891 14 87.1011 13.76C86.6131 13.512 86.2291 13.144 85.9491 12.656C85.6771 12.16 85.5411 11.54 85.5411 10.796C85.5411 9.684 85.8131 8.836 86.3571 8.252C86.9091 7.668 87.6371 7.376 88.5411 7.376ZM88.5411 8.492C88.1331 8.492 87.8011 8.624 87.5451 8.888C87.2971 9.144 87.1531 9.528 87.1131 10.04H89.9091C89.9011 9.592 89.7851 9.224 89.5611 8.936C89.3451 8.64 89.0051 8.492 88.5411 8.492ZM94.4098 14H92.8978V4.88H94.4098V14Z" fill="#666666"/>
<rect x="1" y="26" width="368" height="56" rx="8" fill="white"/>
<rect x="1" y="26" width="368" height="56" rx="8" stroke="#EB5757" stroke-width="2"/>
<path d="M22.1719 60H20.7266V49.8438H17.1562V48.5781H25.7188V49.8438H22.1719V60ZM25.7656 51.4219H27.2734L29.125 56.3047C29.5156 57.3672 29.7552 58.1458 29.8438 58.6406H29.9062C29.9531 58.4479 30.0599 58.0885 30.2266 57.5625C30.3932 57.0312 30.5339 56.6068 30.6484 56.2891L32.3906 51.4219H33.9062L30.2109 61.1875C29.8516 62.1354 29.4245 62.8151 28.9297 63.2266C28.4349 63.638 27.8229 63.8438 27.0938 63.8438C26.7031 63.8438 26.3151 63.7995 25.9297 63.7109V62.5938C26.1901 62.6562 26.5026 62.6875 26.8672 62.6875C27.3151 62.6875 27.6953 62.5625 28.0078 62.3125C28.3203 62.0677 28.5755 61.6875 28.7734 61.1719L29.2188 60.0312L25.7656 51.4219ZM39.3281 60.1562C38.1771 60.1562 37.2917 59.7422 36.6719 58.9141H36.5781L36.6094 59.2344C36.651 59.6406 36.6719 60.0026 36.6719 60.3203V63.8438H35.2656V51.4219H36.4219L36.6094 52.5938H36.6719C37.0052 52.125 37.3906 51.7865 37.8281 51.5781C38.2656 51.3698 38.7708 51.2656 39.3438 51.2656C40.4583 51.2656 41.3229 51.6536 41.9375 52.4297C42.5573 53.2005 42.8672 54.2891 42.8672 55.6953C42.8672 57.0964 42.5573 58.1901 41.9375 58.9766C41.3177 59.763 40.4479 60.1562 39.3281 60.1562ZM39.0938 52.4453C38.2448 52.4453 37.6302 52.6849 37.25 53.1641C36.875 53.6432 36.6823 54.3958 36.6719 55.4219V55.6953C36.6719 56.8568 36.8646 57.6979 37.25 58.2188C37.6354 58.7344 38.2604 58.9922 39.125 58.9922C39.8438 58.9922 40.4036 58.7005 40.8047 58.1172C41.2109 57.5339 41.4141 56.7214 41.4141 55.6797C41.4141 54.6328 41.2109 53.8333 40.8047 53.2812C40.4036 52.724 39.8333 52.4453 39.0938 52.4453ZM46.5156 60H45.1094V51.4219H46.5156V60ZM45 49.1016C45 48.7891 45.0781 48.5625 45.2344 48.4219C45.3958 48.2812 45.5938 48.2109 45.8281 48.2109C46.0469 48.2109 46.237 48.2812 46.3984 48.4219C46.5651 48.5625 46.6484 48.7891 46.6484 49.1016C46.6484 49.4089 46.5651 49.6354 46.3984 49.7812C46.237 49.9271 46.0469 50 45.8281 50C45.5938 50 45.3958 49.9271 45.2344 49.7812C45.0781 49.6354 45 49.4089 45 49.1016ZM55.0781 60V54.5156C55.0781 53.8177 54.9219 53.2995 54.6094 52.9609C54.3021 52.6172 53.8177 52.4453 53.1562 52.4453C52.276 52.4453 51.6354 52.6901 51.2344 53.1797C50.8385 53.6641 50.6406 54.4557 50.6406 55.5547V60H49.2344V51.4219H50.3672L50.5781 52.5938H50.6562C50.9219 52.1719 51.2943 51.8464 51.7734 51.6172C52.2526 51.3828 52.7812 51.2656 53.3594 51.2656C54.4115 51.2656 55.1927 51.5208 55.7031 52.0312C56.2135 52.5417 56.4688 53.3359 56.4688 54.4141V60H55.0781ZM62.3906 59.0078C63.2552 59.0078 63.8828 58.776 64.2734 58.3125C64.6693 57.8438 64.8672 57.0938 64.8672 56.0625V55.7266C64.8672 54.5807 64.6693 53.7474 64.2734 53.2266C63.8776 52.7057 63.2396 52.4453 62.3594 52.4453C61.6406 52.4453 61.0833 52.7318 60.6875 53.3047C60.2969 53.8724 60.1016 54.6849 60.1016 55.7422C60.1016 56.8047 60.2917 57.6146 60.6719 58.1719C61.0573 58.7292 61.6302 59.0078 62.3906 59.0078ZM64.8516 59.9219L64.8984 58.8672H64.8359C64.2578 59.7266 63.3724 60.1562 62.1797 60.1562C61.0703 60.1562 60.2031 59.7708 59.5781 59C58.9583 58.224 58.6484 57.1328 58.6484 55.7266C58.6484 54.3464 58.9609 53.2578 59.5859 52.4609C60.2161 51.6641 61.0755 51.2656 62.1641 51.2656C63.3255 51.2656 64.2214 51.6979 64.8516 52.5625H64.9375L65.125 51.4219H66.2422V60.1406C66.2422 61.3698 65.9297 62.2943 65.3047 62.9141C64.6849 63.5339 63.7188 63.8438 62.4062 63.8438C61.1562 63.8438 60.1276 63.6615 59.3203 63.2969V62C60.1536 62.4479 61.2083 62.6719 62.4844 62.6719C63.2135 62.6719 63.7891 62.4583 64.2109 62.0312C64.638 61.6042 64.8516 61.013 64.8516 60.2578V59.9219ZM75.5078 46.6953H76.6562V62.6484H75.5078V46.6953Z" fill="#333333"/>
<g clip-path="url(#clip0_1_51)">
<path d="M341 44C335.48 44 331 48.48 331 54C331 59.52 335.48 64 341 64C346.52 64 351 59.52 351 54C351 48.48 346.52 44 341 44ZM342 59H340V57H342V59ZM342 55H340V49H342V55Z" fill="#EB5757"/>
</g>
<path d="M6.95312 104H2.16602V95.4336H6.95312V96.3828H3.24414V99.0547H6.73633V99.9922H3.24414V103.051H6.95312V104ZM11.6992 97.4492C11.9844 97.4492 12.2363 97.4727 12.4551 97.5195L12.3262 98.4922C12.0879 98.4375 11.8555 98.4102 11.6289 98.4102C11.2891 98.4102 10.9727 98.5039 10.6797 98.6914C10.3906 98.8789 10.1641 99.1387 10 99.4707C9.83594 99.7988 9.75391 100.164 9.75391 100.566V104H8.69922V97.5664H9.56641L9.68359 98.7441H9.73047C9.97656 98.3184 10.2676 97.9961 10.6035 97.7773C10.9395 97.5586 11.3047 97.4492 11.6992 97.4492ZM16.6562 97.4492C16.9414 97.4492 17.1934 97.4727 17.4121 97.5195L17.2832 98.4922C17.0449 98.4375 16.8125 98.4102 16.5859 98.4102C16.2461 98.4102 15.9297 98.5039 15.6367 98.6914C15.3477 98.8789 15.1211 99.1387 14.957 99.4707C14.793 99.7988 14.7109 100.164 14.7109 100.566V104H13.6562V97.5664H14.5234L14.6406 98.7441H14.6875C14.9336 98.3184 15.2246 97.9961 15.5605 97.7773C15.8965 97.5586 16.2617 97.4492 16.6562 97.4492ZM24.0859 100.771C24.0859 101.822 23.8203 102.643 23.2891 103.232C22.7578 103.822 22.0234 104.117 21.0859 104.117C20.5039 104.117 19.9883 103.982 19.5391 103.713C19.0898 103.439 18.7441 103.049 18.502 102.541C18.2598 102.033 18.1387 101.443 18.1387 100.771C18.1387 99.7246 18.4004 98.9102 18.9238 98.3281C19.4473 97.7422 20.1816 97.4492 21.127 97.4492C22.0332 97.4492 22.752 97.748 23.2832 98.3457C23.8184 98.9395 24.0859 99.748 24.0859 100.771ZM19.2285 100.771C19.2285 101.58 19.3867 102.195 19.7031 102.617C20.0234 103.035 20.4941 103.244 21.1152 103.244C21.7285 103.244 22.1953 103.035 22.5156 102.617C22.8359 102.195 22.9961 101.58 22.9961 100.771C22.9961 99.9629 22.834 99.3555 22.5098 98.9492C22.1895 98.5391 21.7188 98.334 21.0977 98.334C19.8516 98.334 19.2285 99.1465 19.2285 100.771ZM28.7617 97.4492C29.0469 97.4492 29.2988 97.4727 29.5176 97.5195L29.3887 98.4922C29.1504 98.4375 28.918 98.4102 28.6914 98.4102C28.3516 98.4102 28.0352 98.5039 27.7422 98.6914C27.4531 98.8789 27.2266 99.1387 27.0625 99.4707C26.8984 99.7988 26.8164 100.164 26.8164 100.566V104H25.7617V97.5664H26.6289L26.7461 98.7441H26.793C27.0391 98.3184 27.3301 97.9961 27.666 97.7773C28.002 97.5586 28.3672 97.4492 28.7617 97.4492ZM42.0215 104V99.8574C42.0215 98.8418 41.5859 98.334 40.7148 98.334C40.1172 98.334 39.6777 98.5078 39.3965 98.8555C39.1152 99.2031 38.9746 99.7344 38.9746 100.449V104H37.9258V99.8574C37.9258 99.3496 37.8184 98.9688 37.6035 98.7148C37.3926 98.4609 37.0605 98.334 36.6074 98.334C36.0137 98.334 35.5781 98.5156 35.3008 98.8789C35.0273 99.2422 34.8906 99.8379 34.8906 100.666V104H33.8359V97.5664H34.6855L34.8438 98.4453H34.9023C35.0859 98.1328 35.3438 97.8887 35.6758 97.7129C36.0117 97.5371 36.3867 97.4492 36.8008 97.4492C37.8086 97.4492 38.4648 97.8086 38.7695 98.5273H38.8281C39.0352 98.1836 39.3164 97.918 39.6719 97.7305C40.0312 97.543 40.4375 97.4492 40.8906 97.4492C41.6172 97.4492 42.1602 97.6367 42.5195 98.0117C42.8828 98.3867 43.0645 98.9863 43.0645 99.8105V104H42.0215ZM47.7988 104.117C46.834 104.117 46.0762 103.826 45.5254 103.244C44.9785 102.658 44.7051 101.854 44.7051 100.83C44.7051 99.7988 44.9609 98.9785 45.4727 98.3691C45.9844 97.7559 46.6758 97.4492 47.5469 97.4492C48.3555 97.4492 49 97.7109 49.4805 98.2344C49.9609 98.7539 50.2012 99.459 50.2012 100.35V100.988H45.7949C45.8145 101.719 46 102.273 46.3516 102.652C46.7031 103.031 47.2012 103.221 47.8457 103.221C48.1895 103.221 48.5156 103.191 48.8242 103.133C49.1328 103.07 49.4941 102.951 49.9082 102.775V103.701C49.5527 103.854 49.2188 103.961 48.9062 104.023C48.5938 104.086 48.2246 104.117 47.7988 104.117ZM47.5352 98.3105C47.0312 98.3105 46.6328 98.4727 46.3398 98.7969C46.0469 99.1211 45.873 99.5723 45.8184 100.15H49.0938C49.0859 99.5488 48.9473 99.0918 48.6777 98.7793C48.4082 98.4668 48.0273 98.3105 47.5352 98.3105ZM56.0254 102.225C56.0254 102.826 55.8008 103.293 55.3516 103.625C54.9023 103.953 54.2715 104.117 53.459 104.117C52.6113 104.117 51.9375 103.982 51.4375 103.713V102.752C52.1445 103.096 52.8262 103.268 53.4824 103.268C54.0137 103.268 54.4004 103.182 54.6426 103.01C54.8848 102.838 55.0059 102.607 55.0059 102.318C55.0059 102.064 54.8887 101.85 54.6543 101.674C54.4238 101.498 54.0117 101.297 53.418 101.07C52.8125 100.836 52.3867 100.637 52.1406 100.473C51.8945 100.305 51.7129 100.117 51.5957 99.9102C51.4824 99.7031 51.4258 99.4512 51.4258 99.1543C51.4258 98.627 51.6406 98.2109 52.0703 97.9062C52.5 97.6016 53.0898 97.4492 53.8398 97.4492C54.5703 97.4492 55.2539 97.5938 55.8906 97.8828L55.5332 98.7207C54.8809 98.4473 54.293 98.3105 53.7695 98.3105C53.332 98.3105 53 98.3809 52.7734 98.5215C52.5469 98.6582 52.4336 98.8477 52.4336 99.0898C52.4336 99.3242 52.5312 99.5195 52.7266 99.6758C52.9219 99.8281 53.377 100.041 54.0918 100.314C54.627 100.514 55.0215 100.699 55.2754 100.871C55.5332 101.043 55.7227 101.236 55.8438 101.451C55.9648 101.666 56.0254 101.924 56.0254 102.225ZM61.7793 102.225C61.7793 102.826 61.5547 103.293 61.1055 103.625C60.6562 103.953 60.0254 104.117 59.2129 104.117C58.3652 104.117 57.6914 103.982 57.1914 103.713V102.752C57.8984 103.096 58.5801 103.268 59.2363 103.268C59.7676 103.268 60.1543 103.182 60.3965 103.01C60.6387 102.838 60.7598 102.607 60.7598 102.318C60.7598 102.064 60.6426 101.85 60.4082 101.674C60.1777 101.498 59.7656 101.297 59.1719 101.07C58.5664 100.836 58.1406 100.637 57.8945 100.473C57.6484 100.305 57.4668 100.117 57.3496 99.9102C57.2363 99.7031 57.1797 99.4512 57.1797 99.1543C57.1797 98.627 57.3945 98.2109 57.8242 97.9062C58.2539 97.6016 58.8438 97.4492 59.5938 97.4492C60.3242 97.4492 61.0078 97.5938 61.6445 97.8828L61.2871 98.7207C60.6348 98.4473 60.0469 98.3105 59.5234 98.3105C59.0859 98.3105 58.7539 98.3809 58.5273 98.5215C58.3008 98.6582 58.1875 98.8477 58.1875 99.0898C58.1875 99.3242 58.2852 99.5195 58.4805 99.6758C58.6758 99.8281 59.1309 100.041 59.8457 100.314C60.3809 100.514 60.7754 100.699 61.0293 100.871C61.2871 101.043 61.4766 101.236 61.5977 101.451C61.7188 101.666 61.7793 101.924 61.7793 102.225ZM67.3164 104L67.1113 103.086H67.0645C66.7441 103.488 66.4238 103.762 66.1035 103.906C65.7871 104.047 65.3867 104.117 64.9023 104.117C64.2695 104.117 63.7734 103.951 63.4141 103.619C63.0547 103.287 62.875 102.818 62.875 102.213C62.875 100.908 63.9043 100.225 65.9629 100.162L67.0527 100.121V99.7402C67.0527 99.252 66.9473 98.8926 66.7363 98.6621C66.5254 98.4277 66.1875 98.3105 65.7227 98.3105C65.3828 98.3105 65.0605 98.3613 64.7559 98.4629C64.4551 98.5645 64.1719 98.6777 63.9062 98.8027L63.584 98.0117C63.9082 97.8398 64.2617 97.7051 64.6445 97.6074C65.0273 97.5098 65.4062 97.4609 65.7812 97.4609C66.5586 97.4609 67.1367 97.6328 67.5156 97.9766C67.8945 98.3203 68.084 98.8672 68.084 99.6172V104H67.3164ZM65.1426 103.268C65.7324 103.268 66.1953 103.109 66.5312 102.793C66.8711 102.473 67.041 102.02 67.041 101.434V100.854L66.0918 100.895C65.3535 100.922 64.8145 101.039 64.4746 101.246C64.1387 101.453 63.9707 101.779 63.9707 102.225C63.9707 102.561 64.0723 102.818 64.2754 102.998C64.4824 103.178 64.7715 103.268 65.1426 103.268ZM72.5312 103.256C73.1797 103.256 73.6504 103.082 73.9434 102.734C74.2402 102.383 74.3887 101.82 74.3887 101.047V100.795C74.3887 99.9355 74.2402 99.3105 73.9434 98.9199C73.6465 98.5293 73.168 98.334 72.5078 98.334C71.9688 98.334 71.5508 98.5488 71.2539 98.9785C70.9609 99.4043 70.8145 100.014 70.8145 100.807C70.8145 101.604 70.957 102.211 71.2422 102.629C71.5312 103.047 71.9609 103.256 72.5312 103.256ZM74.377 103.941L74.4121 103.15H74.3652C73.9316 103.795 73.2676 104.117 72.373 104.117C71.541 104.117 70.8906 103.828 70.4219 103.25C69.957 102.668 69.7246 101.85 69.7246 100.795C69.7246 99.7598 69.959 98.9434 70.4277 98.3457C70.9004 97.748 71.5449 97.4492 72.3613 97.4492C73.2324 97.4492 73.9043 97.7734 74.377 98.4219H74.4414L74.582 97.5664H75.4199V104.105C75.4199 105.027 75.1855 105.721 74.7168 106.186C74.252 106.65 73.5273 106.883 72.543 106.883C71.6055 106.883 70.834 106.746 70.2285 106.473V105.5C70.8535 105.836 71.6445 106.004 72.6016 106.004C73.1484 106.004 73.5801 105.844 73.8965 105.523C74.2168 105.203 74.377 104.76 74.377 104.193V103.941ZM80.2012 104.117C79.2363 104.117 78.4785 103.826 77.9277 103.244C77.3809 102.658 77.1074 101.854 77.1074 100.83C77.1074 99.7988 77.3633 98.9785 77.875 98.3691C78.3867 97.7559 79.0781 97.4492 79.9492 97.4492C80.7578 97.4492 81.4023 97.7109 81.8828 98.2344C82.3633 98.7539 82.6035 99.459 82.6035 100.35V100.988H78.1973C78.2168 101.719 78.4023 102.273 78.7539 102.652C79.1055 103.031 79.6035 103.221 80.248 103.221C80.5918 103.221 80.918 103.191 81.2266 103.133C81.5352 103.07 81.8965 102.951 82.3105 102.775V103.701C81.9551 103.854 81.6211 103.961 81.3086 104.023C80.9961 104.086 80.627 104.117 80.2012 104.117ZM79.9375 98.3105C79.4336 98.3105 79.0352 98.4727 78.7422 98.7969C78.4492 99.1211 78.2754 99.5723 78.2207 100.15H81.4961C81.4883 99.5488 81.3496 99.0918 81.0801 98.7793C80.8105 98.4668 80.4297 98.3105 79.9375 98.3105ZM88.4102 104H87.3555V97.5664H88.4102V104ZM87.2734 95.8262C87.2734 95.5918 87.332 95.4219 87.4492 95.3164C87.5703 95.2109 87.7188 95.1582 87.8945 95.1582C88.0586 95.1582 88.2012 95.2109 88.3223 95.3164C88.4473 95.4219 88.5098 95.5918 88.5098 95.8262C88.5098 96.0566 88.4473 96.2266 88.3223 96.3359C88.2012 96.4453 88.0586 96.5 87.8945 96.5C87.7188 96.5 87.5703 96.4453 87.4492 96.3359C87.332 96.2266 87.2734 96.0566 87.2734 95.8262ZM94.832 104V99.8867C94.832 99.3633 94.7148 98.9746 94.4805 98.7207C94.25 98.4629 93.8867 98.334 93.3906 98.334C92.7305 98.334 92.25 98.5176 91.9492 98.8848C91.6523 99.248 91.5039 99.8418 91.5039 100.666V104H90.4492V97.5664H91.2988L91.457 98.4453H91.5156C91.7148 98.1289 91.9941 97.8848 92.3535 97.7129C92.7129 97.5371 93.1094 97.4492 93.543 97.4492C94.332 97.4492 94.918 97.6406 95.3008 98.0234C95.6836 98.4062 95.875 99.002 95.875 99.8105V104H94.832ZM100.832 98.3867H99.209V104H98.1543V98.3867H97.0293V97.8945L98.1543 97.5312V97.1621C98.1543 96.3809 98.3242 95.7949 98.6641 95.4043C99.0078 95.0137 99.5352 94.8184 100.246 94.8184C100.656 94.8184 101.072 94.8906 101.494 95.0352L101.213 95.8613C100.85 95.7441 100.531 95.6855 100.258 95.6855C99.9023 95.6855 99.6387 95.8027 99.4668 96.0371C99.2949 96.2715 99.209 96.6426 99.209 97.1504V97.5664H100.832V98.3867ZM107.594 100.771C107.594 101.822 107.328 102.643 106.797 103.232C106.266 103.822 105.531 104.117 104.594 104.117C104.012 104.117 103.496 103.982 103.047 103.713C102.598 103.439 102.252 103.049 102.01 102.541C101.768 102.033 101.646 101.443 101.646 100.771C101.646 99.7246 101.908 98.9102 102.432 98.3281C102.955 97.7422 103.689 97.4492 104.635 97.4492C105.541 97.4492 106.26 97.748 106.791 98.3457C107.326 98.9395 107.594 99.748 107.594 100.771ZM102.736 100.771C102.736 101.58 102.895 102.195 103.211 102.617C103.531 103.035 104.002 103.244 104.623 103.244C105.236 103.244 105.703 103.035 106.023 102.617C106.344 102.195 106.504 101.58 106.504 100.771C106.504 99.9629 106.342 99.3555 106.018 98.9492C105.697 98.5391 105.227 98.334 104.605 98.334C103.359 98.334 102.736 99.1465 102.736 100.771ZM112.27 97.4492C112.555 97.4492 112.807 97.4727 113.025 97.5195L112.896 98.4922C112.658 98.4375 112.426 98.4102 112.199 98.4102C111.859 98.4102 111.543 98.5039 111.25 98.6914C110.961 98.8789 110.734 99.1387 110.57 99.4707C110.406 99.7988 110.324 100.164 110.324 100.566V104H109.27V97.5664H110.137L110.254 98.7441H110.301C110.547 98.3184 110.838 97.9961 111.174 97.7773C111.51 97.5586 111.875 97.4492 112.27 97.4492ZM122.412 104V99.8574C122.412 98.8418 121.977 98.334 121.105 98.334C120.508 98.334 120.068 98.5078 119.787 98.8555C119.506 99.2031 119.365 99.7344 119.365 100.449V104H118.316V99.8574C118.316 99.3496 118.209 98.9688 117.994 98.7148C117.783 98.4609 117.451 98.334 116.998 98.334C116.404 98.334 115.969 98.5156 115.691 98.8789C115.418 99.2422 115.281 99.8379 115.281 100.666V104H114.227V97.5664H115.076L115.234 98.4453H115.293C115.477 98.1328 115.734 97.8887 116.066 97.7129C116.402 97.5371 116.777 97.4492 117.191 97.4492C118.199 97.4492 118.855 97.8086 119.16 98.5273H119.219C119.426 98.1836 119.707 97.918 120.062 97.7305C120.422 97.543 120.828 97.4492 121.281 97.4492C122.008 97.4492 122.551 97.6367 122.91 98.0117C123.273 98.3867 123.455 98.9863 123.455 99.8105V104H122.412ZM126.508 104H125.453V97.5664H126.508V104ZM125.371 95.8262C125.371 95.5918 125.43 95.4219 125.547 95.3164C125.668 95.2109 125.816 95.1582 125.992 95.1582C126.156 95.1582 126.299 95.2109 126.42 95.3164C126.545 95.4219 126.607 95.5918 126.607 95.8262C126.607 96.0566 126.545 96.2266 126.42 96.3359C126.299 96.4453 126.156 96.5 125.992 96.5C125.816 96.5 125.668 96.4453 125.547 96.3359C125.43 96.2266 125.371 96.0566 125.371 95.8262ZM132.93 104V99.8867C132.93 99.3633 132.812 98.9746 132.578 98.7207C132.348 98.4629 131.984 98.334 131.488 98.334C130.828 98.334 130.348 98.5176 130.047 98.8848C129.75 99.248 129.602 99.8418 129.602 100.666V104H128.547V97.5664H129.396L129.555 98.4453H129.613C129.812 98.1289 130.092 97.8848 130.451 97.7129C130.811 97.5371 131.207 97.4492 131.641 97.4492C132.43 97.4492 133.016 97.6406 133.398 98.0234C133.781 98.4062 133.973 99.002 133.973 99.8105V104H132.93ZM138.414 103.256C139.062 103.256 139.533 103.082 139.826 102.734C140.123 102.383 140.271 101.82 140.271 101.047V100.795C140.271 99.9355 140.123 99.3105 139.826 98.9199C139.529 98.5293 139.051 98.334 138.391 98.334C137.852 98.334 137.434 98.5488 137.137 98.9785C136.844 99.4043 136.697 100.014 136.697 100.807C136.697 101.604 136.84 102.211 137.125 102.629C137.414 103.047 137.844 103.256 138.414 103.256ZM140.26 103.941L140.295 103.15H140.248C139.814 103.795 139.15 104.117 138.256 104.117C137.424 104.117 136.773 103.828 136.305 103.25C135.84 102.668 135.607 101.85 135.607 100.795C135.607 99.7598 135.842 98.9434 136.311 98.3457C136.783 97.748 137.428 97.4492 138.244 97.4492C139.115 97.4492 139.787 97.7734 140.26 98.4219H140.324L140.465 97.5664H141.303V104.105C141.303 105.027 141.068 105.721 140.6 106.186C140.135 106.65 139.41 106.883 138.426 106.883C137.488 106.883 136.717 106.746 136.111 106.473V105.5C136.736 105.836 137.527 106.004 138.484 106.004C139.031 106.004 139.463 105.844 139.779 105.523C140.1 105.203 140.26 104.76 140.26 104.193V103.941ZM154.65 104V99.8574C154.65 98.8418 154.215 98.334 153.344 98.334C152.746 98.334 152.307 98.5078 152.025 98.8555C151.744 99.2031 151.604 99.7344 151.604 100.449V104H150.555V99.8574C150.555 99.3496 150.447 98.9688 150.232 98.7148C150.021 98.4609 149.689 98.334 149.236 98.334C148.643 98.334 148.207 98.5156 147.93 98.8789C147.656 99.2422 147.52 99.8379 147.52 100.666V104H146.465V97.5664H147.314L147.473 98.4453H147.531C147.715 98.1328 147.973 97.8887 148.305 97.7129C148.641 97.5371 149.016 97.4492 149.43 97.4492C150.438 97.4492 151.094 97.8086 151.398 98.5273H151.457C151.664 98.1836 151.945 97.918 152.301 97.7305C152.66 97.543 153.066 97.4492 153.52 97.4492C154.246 97.4492 154.789 97.6367 155.148 98.0117C155.512 98.3867 155.693 98.9863 155.693 99.8105V104H154.65ZM160.428 104.117C159.463 104.117 158.705 103.826 158.154 103.244C157.607 102.658 157.334 101.854 157.334 100.83C157.334 99.7988 157.59 98.9785 158.102 98.3691C158.613 97.7559 159.305 97.4492 160.176 97.4492C160.984 97.4492 161.629 97.7109 162.109 98.2344C162.59 98.7539 162.83 99.459 162.83 100.35V100.988H158.424C158.443 101.719 158.629 102.273 158.98 102.652C159.332 103.031 159.83 103.221 160.475 103.221C160.818 103.221 161.145 103.191 161.453 103.133C161.762 103.07 162.123 102.951 162.537 102.775V103.701C162.182 103.854 161.848 103.961 161.535 104.023C161.223 104.086 160.854 104.117 160.428 104.117ZM160.164 98.3105C159.66 98.3105 159.262 98.4727 158.969 98.7969C158.676 99.1211 158.502 99.5723 158.447 100.15H161.723C161.715 99.5488 161.576 99.0918 161.307 98.7793C161.037 98.4668 160.656 98.3105 160.164 98.3105ZM173.172 100.771C173.172 101.822 172.906 102.643 172.375 103.232C171.844 103.822 171.109 104.117 170.172 104.117C169.59 104.117 169.074 103.982 168.625 103.713C168.176 103.439 167.83 103.049 167.588 102.541C167.346 102.033 167.225 101.443 167.225 100.771C167.225 99.7246 167.486 98.9102 168.01 98.3281C168.533 97.7422 169.268 97.4492 170.213 97.4492C171.119 97.4492 171.838 97.748 172.369 98.3457C172.904 98.9395 173.172 99.748 173.172 100.771ZM168.314 100.771C168.314 101.58 168.473 102.195 168.789 102.617C169.109 103.035 169.58 103.244 170.201 103.244C170.814 103.244 171.281 103.035 171.602 102.617C171.922 102.195 172.082 101.58 172.082 100.771C172.082 99.9629 171.92 99.3555 171.596 98.9492C171.275 98.5391 170.805 98.334 170.184 98.334C168.938 98.334 168.314 99.1465 168.314 100.771ZM177.812 98.3867H176.189V104H175.135V98.3867H174.01V97.8945L175.135 97.5312V97.1621C175.135 96.3809 175.305 95.7949 175.645 95.4043C175.988 95.0137 176.516 94.8184 177.227 94.8184C177.637 94.8184 178.053 94.8906 178.475 95.0352L178.193 95.8613C177.83 95.7441 177.512 95.6855 177.238 95.6855C176.883 95.6855 176.619 95.8027 176.447 96.0371C176.275 96.2715 176.189 96.6426 176.189 97.1504V97.5664H177.812V98.3867ZM186.074 104L185.869 103.086H185.822C185.502 103.488 185.182 103.762 184.861 103.906C184.545 104.047 184.145 104.117 183.66 104.117C183.027 104.117 182.531 103.951 182.172 103.619C181.812 103.287 181.633 102.818 181.633 102.213C181.633 100.908 182.662 100.225 184.721 100.162L185.811 100.121V99.7402C185.811 99.252 185.705 98.8926 185.494 98.6621C185.283 98.4277 184.945 98.3105 184.48 98.3105C184.141 98.3105 183.818 98.3613 183.514 98.4629C183.213 98.5645 182.93 98.6777 182.664 98.8027L182.342 98.0117C182.666 97.8398 183.02 97.7051 183.402 97.6074C183.785 97.5098 184.164 97.4609 184.539 97.4609C185.316 97.4609 185.895 97.6328 186.273 97.9766C186.652 98.3203 186.842 98.8672 186.842 99.6172V104H186.074ZM183.9 103.268C184.49 103.268 184.953 103.109 185.289 102.793C185.629 102.473 185.799 102.02 185.799 101.434V100.854L184.85 100.895C184.111 100.922 183.572 101.039 183.232 101.246C182.896 101.453 182.729 101.779 182.729 102.225C182.729 102.561 182.83 102.818 183.033 102.998C183.24 103.178 183.529 103.268 183.9 103.268ZM195.004 104.117C194.141 104.117 193.477 103.807 193.012 103.186H192.941L192.965 103.426C192.996 103.73 193.012 104.002 193.012 104.24V106.883H191.957V97.5664H192.824L192.965 98.4453H193.012C193.262 98.0938 193.551 97.8398 193.879 97.6836C194.207 97.5273 194.586 97.4492 195.016 97.4492C195.852 97.4492 196.5 97.7402 196.961 98.3223C197.426 98.9004 197.658 99.7168 197.658 100.771C197.658 101.822 197.426 102.643 196.961 103.232C196.496 103.822 195.844 104.117 195.004 104.117ZM194.828 98.334C194.191 98.334 193.73 98.5137 193.445 98.873C193.164 99.2324 193.02 99.7969 193.012 100.566V100.771C193.012 101.643 193.156 102.273 193.445 102.664C193.734 103.051 194.203 103.244 194.852 103.244C195.391 103.244 195.811 103.025 196.111 102.588C196.416 102.15 196.568 101.541 196.568 100.76C196.568 99.9746 196.416 99.375 196.111 98.9609C195.811 98.543 195.383 98.334 194.828 98.334ZM202.34 97.4492C202.625 97.4492 202.877 97.4727 203.096 97.5195L202.967 98.4922C202.729 98.4375 202.496 98.4102 202.27 98.4102C201.93 98.4102 201.613 98.5039 201.32 98.6914C201.031 98.8789 200.805 99.1387 200.641 99.4707C200.477 99.7988 200.395 100.164 200.395 100.566V104H199.34V97.5664H200.207L200.324 98.7441H200.371C200.617 98.3184 200.908 97.9961 201.244 97.7773C201.58 97.5586 201.945 97.4492 202.34 97.4492ZM209.77 100.771C209.77 101.822 209.504 102.643 208.973 103.232C208.441 103.822 207.707 104.117 206.77 104.117C206.188 104.117 205.672 103.982 205.223 103.713C204.773 103.439 204.428 103.049 204.186 102.541C203.943 102.033 203.822 101.443 203.822 100.771C203.822 99.7246 204.084 98.9102 204.607 98.3281C205.131 97.7422 205.865 97.4492 206.811 97.4492C207.717 97.4492 208.436 97.748 208.967 98.3457C209.502 98.9395 209.77 99.748 209.77 100.771ZM204.912 100.771C204.912 101.58 205.07 102.195 205.387 102.617C205.707 103.035 206.178 103.244 206.799 103.244C207.412 103.244 207.879 103.035 208.199 102.617C208.52 102.195 208.68 101.58 208.68 100.771C208.68 99.9629 208.518 99.3555 208.193 98.9492C207.873 98.5391 207.402 98.334 206.781 98.334C205.535 98.334 204.912 99.1465 204.912 100.771ZM214.492 97.4609C215.34 97.4609 215.994 97.7539 216.455 98.3398C216.916 98.9219 217.146 99.7363 217.146 100.783C217.146 101.846 216.912 102.668 216.443 103.25C215.975 103.828 215.324 104.117 214.492 104.117C214.059 104.117 213.672 104.039 213.332 103.883C212.992 103.727 212.715 103.494 212.5 103.186H212.418C212.297 103.654 212.225 103.926 212.201 104H211.445V94.8828H212.5V97.0977C212.5 97.5391 212.48 97.9805 212.441 98.4219H212.5C212.934 97.7812 213.598 97.4609 214.492 97.4609ZM214.316 98.334C213.668 98.334 213.203 98.5176 212.922 98.8848C212.641 99.252 212.5 99.873 212.5 100.748V100.795C212.5 101.674 212.643 102.303 212.928 102.682C213.217 103.057 213.688 103.244 214.34 103.244C214.918 103.244 215.348 103.033 215.629 102.611C215.914 102.186 216.057 101.572 216.057 100.771C216.057 99.959 215.914 99.3496 215.629 98.9434C215.344 98.5371 214.906 98.334 214.316 98.334ZM219.883 104H218.828V94.8828H219.883V104ZM224.658 104.117C223.693 104.117 222.936 103.826 222.385 103.244C221.838 102.658 221.564 101.854 221.564 100.83C221.564 99.7988 221.82 98.9785 222.332 98.3691C222.844 97.7559 223.535 97.4492 224.406 97.4492C225.215 97.4492 225.859 97.7109 226.34 98.2344C226.82 98.7539 227.061 99.459 227.061 100.35V100.988H222.654C222.674 101.719 222.859 102.273 223.211 102.652C223.562 103.031 224.061 103.221 224.705 103.221C225.049 103.221 225.375 103.191 225.684 103.133C225.992 103.07 226.354 102.951 226.768 102.775V103.701C226.412 103.854 226.078 103.961 225.766 104.023C225.453 104.086 225.084 104.117 224.658 104.117ZM224.395 98.3105C223.891 98.3105 223.492 98.4727 223.199 98.7969C222.906 99.1211 222.732 99.5723 222.678 100.15H225.953C225.945 99.5488 225.807 99.0918 225.537 98.7793C225.268 98.4668 224.887 98.3105 224.395 98.3105ZM236.881 104V99.8574C236.881 98.8418 236.445 98.334 235.574 98.334C234.977 98.334 234.537 98.5078 234.256 98.8555C233.975 99.2031 233.834 99.7344 233.834 100.449V104H232.785V99.8574C232.785 99.3496 232.678 98.9688 232.463 98.7148C232.252 98.4609 231.92 98.334 231.467 98.334C230.873 98.334 230.438 98.5156 230.16 98.8789C229.887 99.2422 229.75 99.8379 229.75 100.666V104H228.695V97.5664H229.545L229.703 98.4453H229.762C229.945 98.1328 230.203 97.8887 230.535 97.7129C230.871 97.5371 231.246 97.4492 231.66 97.4492C232.668 97.4492 233.324 97.8086 233.629 98.5273H233.688C233.895 98.1836 234.176 97.918 234.531 97.7305C234.891 97.543 235.297 97.4492 235.75 97.4492C236.477 97.4492 237.02 97.6367 237.379 98.0117C237.742 98.3867 237.924 98.9863 237.924 99.8105V104H236.881Z" fill="#EB5757"/>
<defs>
<clipPath id="clip0_1_51">
<rect width="24" height="24" fill="white" transform="translate(329 42)"/>
</clipPath>
</defs>
</svg>
